lab5/T_FlipFlop/Simulation/qsim/T_FLIPFLOP.msim.vcd
$comment
	File created using the following command:
		vcd file T_FLIPFLOP.msim.vcd -direction
$end
$date
	Tue Mar 31 09:47:39 2026
$end
$version
	ModelSim Version 10.1d
$end
$timescale
	1ps
$end
$scope module T_FLIPFLOP_vlg_vec_tst $end
$var reg 1 ! Clk $end
$var reg 1 " T $end
$var wire 1 # notQ $end
$var wire 1 $ Q $end
$var wire 1 % sampler $end
$scope module i1 $end
$var wire 1 & gnd $end
$var wire 1 ' vcc $end
$var wire 1 ( unknown $end
$var tri1 1 ) devclrn $end
$var tri1 1 * devpor $end
$var tri1 1 + devoe $end
$var wire 1 , Q~output_o $end
$var wire 1 - notQ~output_o $end
$var wire 1 . Clk~input_o $end
$var wire 1 / T~input_o $end
$var wire 1 0 inst2~0_combout $end
$var wire 1 1 inst2~q $end
$upscope $end
$upscope $end
$enddefinitions $end
#0
$dumpvars
0!
0"
1#
0$
x%
0&
1'
x(
1)
1*
1+
0,
1-
0.
0/
00
01
$end
#50000
1!
1.
0%
#100000
0!
0.
1%
#150000
1!
1.
0%
#175000
1"
1/
1%
10
#200000
0!
0.
0%
#250000
1!
1.
1%
11
00
1,
0-
1$
0#
#300000
0!
0.
0%
#350000
0"
1!
0/
1.
1%
10
01
00
0,
1-
0$
1#
#400000
0!
0.
0%
#450000
1!
1.
1%
#500000
0!
0.
0%
#525000
1"
1/
1%
10
#550000
1!
1.
0%
11
00
1,
0-
1$
0#
#600000
0!
0.
1%
#650000
1!
1.
0%
01
10
0,
1-
0$
1#
#700000
0"
0!
0/
0.
1%
00
#750000
1!
1.
0%
#800000
0!
0.
1%
#850000
1!
1.
0%
#875000
1"
1/
1%
10
#900000
0!
0.
0%
#950000
1!
1.
1%
11
00
1,
0-
1$
0#
