lab5/T_FlipFlop/Simulation/qsim/T_FLIPFLOP.msim.vcd
$comment
	File created using the following command:
		vcd file T_FLIPFLOP.msim.vcd -direction
$end
$date
	Fri Apr 03 20:30:58 2026
$end
$version
	ModelSim Version 10.1d
$end
$timescale
	1ps
$end
$scope module T_FLIPFLOP_vlg_vec_tst $end
$var reg 1 ! Clk $end
$var reg 1 " T $end
$var wire 1 # notQ $end
$var wire 1 $ Q $end
$var wire 1 % sampler $end
$scope module i1 $end
$var wire 1 & gnd $end
$var wire 1 ' vcc $end
$var wire 1 ( unknown $end
$var tri1 1 ) devclrn $end
$var tri1 1 * devpor $end
$var tri1 1 + devoe $end
$var wire 1 , Q~output_o $end
$var wire 1 - notQ~output_o $end
$var wire 1 . Clk~input_o $end
$var wire 1 / T~input_o $end
$var wire 1 0 inst2~0_combout $end
$var wire 1 1 inst2~q $end
$upscope $end
$upscope $end
$enddefinitions $end
#0
$dumpvars
0!
0"
1#
0$
x%
0&
1'
x(
1)
1*
1+
0,
1-
0.
0/
00
01
$end
#50000
1"
1/
0%
10
#75000
1!
1.
1%
11
00
1,
0-
1$
0#
#100000
0"
0/
0%
10
#150000
0!
1"
0.
1/
1%
00
#200000
0"
0/
0%
10
#225000
1!
1.
1%
#250000
1"
1/
0%
00
#300000
0!
0"
0.
0/
1%
10
#350000
1"
1/
0%
00
#375000
1!
1.
1%
01
10
0,
1-
0$
1#
#400000
0"
0/
0%
00
#450000
0!
1"
0.
1/
1%
10
#500000
0"
0/
0%
00
#517500
1!
1.
1%
#550000
1"
1/
0%
10
#555000
0!
0.
1%
#592500
1!
1.
0%
11
00
1,
0-
1$
0#
#600000
0"
0/
1%
10
#630000
0!
0.
0%
#650000
1"
1/
1%
00
#667500
1!
1.
0%
01
10
0,
1-
0$
1#
#700000
0"
0/
1%
00
#705000
0!
0.
0%
#742500
1!
1.
1%
#750000
1"
1/
0%
10
#780000
0!
0.
1%
#800000
0"
0/
0%
00
#817500
1!
1.
1%
#850000
1"
1/
0%
10
#855000
0!
0.
1%
#892500
1!
1.
0%
11
00
1,
0-
1$
0#
#900000
0"
0/
1%
10
#930000
0!
0.
0%
#950000
1"
1/
1%
00
#967500
1!
1.
0%
01
10
0,
1-
0$
1#
