lab1/Figure 5.1.7/simulation/qsim/ITI1100_LAB1_FIG_517.msim.vcd
$comment
	File created using the following command:
		vcd file ITI1100_LAB1_FIG_517.msim.vcd -direction
$end
$date
	Fri Jan 23 18:46:15 2026
$end
$version
	ModelSim Version 10.1d
$end
$timescale
	1ps
$end
$scope module The_Or_Circuit_vlg_vec_tst $end
$var reg 1 ! A $end
$var reg 1 " B $end
$var reg 1 # C $end
$var wire 1 $ P $end
$var wire 1 % sampler $end
$scope module i1 $end
$var wire 1 & gnd $end
$var wire 1 ' vcc $end
$var wire 1 ( unknown $end
$var tri1 1 ) devclrn $end
$var tri1 1 * devpor $end
$var tri1 1 + devoe $end
$var wire 1 , B~input_o $end
$var wire 1 - P~output_o $end
$var wire 1 . C~input_o $end
$var wire 1 / A~input_o $end
$var wire 1 0 inst2~0_combout $end
$upscope $end
$upscope $end
$enddefinitions $end
#0
$dumpvars
0!
0"
0#
0$
x%
0&
1'
x(
1)
1*
1+
0,
0-
0.
0/
00
$end
#50000
1!
1/
0%
10
1-
1$
#100000
1"
0!
1,
0/
1%
00
0-
0$
#150000
1!
1/
0%
10
1-
1$
#200000
1#
0"
0!
1.
0,
0/
1%
#250000
1!
1/
0%
#300000
1"
0!
1,
0/
1%
#350000
1!
1/
0%
