lab6/Synchronous_Counter/Simulation/qsim/Counter.msim.vcd
$comment
	File created using the following command:
		vcd file Counter.msim.vcd -direction
$end
$date
	Wed Apr 08 13:09:12 2026
$end
$version
	ModelSim Version 10.1d
$end
$timescale
	1ps
$end
$scope module Counter_vlg_vec_tst $end
$var reg 1 ! Clk $end
$var wire 1 " Q0 $end
$var wire 1 # Q1 $end
$var wire 1 $ Q2 $end
$var wire 1 % Q3 $end
$var wire 1 & sampler $end
$scope module i1 $end
$var wire 1 ' gnd $end
$var wire 1 ( vcc $end
$var wire 1 ) unknown $end
$var tri1 1 * devclrn $end
$var tri1 1 + devpor $end
$var tri1 1 , devoe $end
$var wire 1 - Q0~output_o $end
$var wire 1 . Q1~output_o $end
$var wire 1 / Q2~output_o $end
$var wire 1 0 Q3~output_o $end
$var wire 1 1 Clk~input_o $end
$var wire 1 2 inst1~0_combout $end
$var wire 1 3 inst1~q $end
$var wire 1 4 inst3~0_combout $end
$var wire 1 5 inst3~q $end
$var wire 1 6 inst~0_combout $end
$var wire 1 7 inst~q $end
$var wire 1 8 inst2~feeder_combout $end
$var wire 1 9 inst2~q $end
$upscope $end
$upscope $end
$enddefinitions $end
#0
$dumpvars
0!
0"
0#
0$
0%
x&
0'
1(
x)
1*
1+
1,
0-
0.
0/
00
01
02
03
14
05
06
07
08
09
$end
#62500
1!
11
0&
15
18
10
1%
#125000
0!
01
1&
#187500
1!
11
0&
19
16
1/
1$
#250000
0!
01
1&
#312500
1!
11
0&
17
12
1-
1"
#375000
0!
01
1&
#437500
1!
11
0&
13
06
1.
1#
#500000
0!
01
1&
#562500
1!
11
0&
07
04
0-
0"
#625000
0!
01
1&
#687500
1!
11
0&
05
08
00
0%
#750000
0!
01
1&
#812500
1!
11
0&
09
16
0/
0$
#875000
0!
01
1&
#937500
1!
11
0&
17
02
1-
1"
#1000000
0!
01
1&
#1062500
1!
11
0&
03
06
0.
0#
#1125000
0!
01
1&
#1187500
1!
11
0&
07
14
0-
0"
#1250000
0!
01
1&
#1312500
1!
11
0&
15
18
10
1%
#1375000
0!
01
1&
#1437500
1!
11
0&
19
16
1/
1$
#1500000
0!
01
1&
#1562500
1!
11
0&
17
12
1-
1"
#1625000
0!
01
1&
#1687500
1!
11
0&
13
06
1.
1#
#1750000
0!
01
1&
#1812500
1!
11
0&
07
04
0-
0"
#1875000
0!
01
1&
#1937500
1!
11
0&
05
08
00
0%
#2000000
0!
01
1&
#2062500
1!
11
0&
09
16
0/
0$
#2125000
0!
01
1&
#2187500
1!
11
0&
17
02
1-
1"
#2250000
0!
01
1&
#2312500
1!
11
0&
03
06
0.
0#
#2375000
0!
01
1&
#2437500
1!
11
0&
07
14
0-
0"
