lab5/SR_Latch/Simulation/qsim/SR_LATCH.msim.vcd
$comment
	File created using the following command:
		vcd file SR_LATCH.msim.vcd -direction
$end
$date
	Fri Apr 03 19:31:10 2026
$end
$version
	ModelSim Version 10.1d
$end
$timescale
	1ps
$end
$scope module SR_LATCH_vlg_vec_tst $end
$var reg 1 ! R $end
$var reg 1 " S $end
$var wire 1 # notQ $end
$var wire 1 $ Q $end
$var wire 1 % sampler $end
$scope module i1 $end
$var wire 1 & gnd $end
$var wire 1 ' vcc $end
$var wire 1 ( unknown $end
$var tri1 1 ) devclrn $end
$var tri1 1 * devpor $end
$var tri1 1 + devoe $end
$var wire 1 , Q~output_o $end
$var wire 1 - notQ~output_o $end
$var wire 1 . S~input_o $end
$var wire 1 / R~input_o $end
$var wire 1 0 inst3~combout $end
$var wire 1 1 inst4~combout $end
$upscope $end
$upscope $end
$enddefinitions $end
#0
$dumpvars
1!
0"
1#
0$
x%
0&
1'
x(
1)
1*
1+
0,
1-
0.
1/
10
11
$end
#100000
1"
0!
1.
0/
0%
00
1,
1$
01
0-
0#
#200000
0"
1!
0.
1/
1%
10
11
0,
1-
0$
1#
#300000
1"
0!
1.
0/
0%
00
1,
1$
01
0-
0#
#400000
0"
1!
0.
1/
1%
10
11
0,
1-
0$
1#
#500000
1"
0!
1.
0/
0%
00
1,
1$
01
0-
0#
#600000
0"
1!
0.
1/
1%
10
11
0,
1-
0$
1#
#700000
1"
0!
1.
0/
0%
00
1,
1$
01
0-
0#
#800000
0"
1!
0.
1/
1%
10
11
0,
1-
0$
1#
#900000
1"
1.
0%
00
1,
1$
