lab5/D_Latch/Simulation/qsim/D_LATCH.msim.vcd
$comment
	File created using the following command:
		vcd file D_LATCH.msim.vcd -direction
$end
$date
	Tue Mar 31 11:41:13 2026
$end
$version
	ModelSim Version 10.1d
$end
$timescale
	1ps
$end
$scope module D_LATCH_vlg_vec_tst $end
$var reg 1 ! D $end
$var reg 1 " En $end
$var wire 1 # notQ $end
$var wire 1 $ Q $end
$var wire 1 % sampler $end
$scope module i1 $end
$var wire 1 & gnd $end
$var wire 1 ' vcc $end
$var wire 1 ( unknown $end
$var tri1 1 ) devclrn $end
$var tri1 1 * devpor $end
$var tri1 1 + devoe $end
$var wire 1 , Q~output_o $end
$var wire 1 - notQ~output_o $end
$var wire 1 . D~input_o $end
$var wire 1 / En~input_o $end
$var wire 1 0 inst3~1_combout $end
$var wire 1 1 inst2~combout $end
$upscope $end
$upscope $end
$enddefinitions $end
#0
$dumpvars
0!
1"
1#
0$
x%
0&
1'
x(
1)
1*
1+
0,
1-
0.
1/
10
11
$end
#125000
1!
1.
0%
00
1,
1$
01
0-
0#
#250000
0!
0.
1%
10
11
0,
1-
0$
1#
#375000
1!
1.
0%
00
1,
1$
01
0-
0#
#500000
0!
0.
1%
10
11
0,
1-
0$
1#
#550000
0"
0/
0%
#625000
1!
1.
1%
#750000
0!
0.
0%
#875000
1!
1.
1%
