lab5/D_FlipFlop/Simulation/qsim/D_FLIPFLOP.msim.vcd
$comment
	File created using the following command:
		vcd file D_FLIPFLOP.msim.vcd -direction
$end
$date
	Tue Mar 31 10:42:54 2026
$end
$version
	ModelSim Version 10.1d
$end
$timescale
	1ps
$end
$scope module D_FLIPFLOP_vlg_vec_tst $end
$var reg 1 ! Clock $end
$var reg 1 " D $end
$var wire 1 # notQ $end
$var wire 1 $ Q $end
$var wire 1 % sampler $end
$scope module i1 $end
$var wire 1 & gnd $end
$var wire 1 ' vcc $end
$var wire 1 ( unknown $end
$var tri1 1 ) devclrn $end
$var tri1 1 * devpor $end
$var tri1 1 + devoe $end
$var wire 1 , notQ~output_o $end
$var wire 1 - Q~output_o $end
$var wire 1 . Clock~input_o $end
$var wire 1 / D~input_o $end
$var wire 1 0 inst6~1_combout $end
$var wire 1 1 inst1~1_combout $end
$var wire 1 2 inst5~combout $end
$var wire 1 3 inst4~combout $end
$upscope $end
$upscope $end
$enddefinitions $end
#0
$dumpvars
0!
0"
x#
x$
x%
0&
1'
x(
1)
1*
1+
x,
x-
0.
0/
x0
x1
x2
x3
$end
#3770
00
#3790
01
#50000
1"
0%
#50680
1/
#100000
0"
1%
#100786
0/
#125000
1!
0%
#125670
1.
#129205
10
#129565
02
#129971
03
#132815
1,
1#
#133189
0-
0$
#150000
1"
1%
#150680
1/
#200000
0"
0%
#200786
0/
#250000
0!
1"
1%
#250680
1/
#250776
0.
#254546
00
#300000
0"
0%
#300786
0/
#350000
1"
1%
#350680
1/
#375000
1!
0%
#375670
1.
#379189
11
#379871
12
#379872
13
#383125
1-
1$
#383153
0,
0#
#400000
0"
1%
#400786
0/
#450000
1"
0%
#450680
1/
#500000
0!
0"
1%
#500776
0.
#500786
0/
#504566
01
#550000
1"
0%
#550680
1/
#600000
0"
1%
#600786
0/
#625000
1!
0%
#625670
1.
#629205
10
#629565
02
#629971
03
#632815
1,
1#
#633189
0-
0$
#650000
1"
1%
#650680
1/
#700000
0"
0%
#700786
0/
#750000
0!
1"
1%
#750680
1/
#750776
0.
#754546
00
#800000
0"
0%
#800786
0/
#850000
1"
1%
#850680
1/
#875000
1!
0%
#875670
1.
#879189
11
#879871
12
#879872
13
#883125
1-
1$
#883153
0,
0#
#900000
0"
1%
#900786
0/
#950000
1"
0%
#950680
1/
