lab5/D_FlipFlop/Simulation/qsim/D_FLIPFLOP.msim.vcd
$comment
	File created using the following command:
		vcd file D_FLIPFLOP.msim.vcd -direction
$end
$date
	Fri Apr 03 20:01:29 2026
$end
$version
	ModelSim Version 10.1d
$end
$timescale
	1ps
$end
$scope module D_FLIPFLOP_vlg_vec_tst $end
$var reg 1 ! Clock $end
$var reg 1 " D $end
$var wire 1 # notQ $end
$var wire 1 $ Q $end
$var wire 1 % sampler $end
$scope module i1 $end
$var wire 1 & gnd $end
$var wire 1 ' vcc $end
$var wire 1 ( unknown $end
$var tri1 1 ) devclrn $end
$var tri1 1 * devpor $end
$var tri1 1 + devoe $end
$var wire 1 , notQ~output_o $end
$var wire 1 - Q~output_o $end
$var wire 1 . Clock~input_o $end
$var wire 1 / D~input_o $end
$var wire 1 0 inst6~1_combout $end
$var wire 1 1 inst1~1_combout $end
$var wire 1 2 inst5~combout $end
$var wire 1 3 inst4~combout $end
$upscope $end
$upscope $end
$enddefinitions $end
#0
$dumpvars
0!
0"
x#
x$
x%
0&
1'
x(
1)
1*
1+
x,
x-
0.
0/
00
01
x2
x3
$end
#50000
1"
1/
0%
#100000
0"
0/
1%
#125000
1!
1.
0%
10
02
1,
1#
03
0-
0$
#150000
1"
1/
1%
#200000
0"
0/
0%
#250000
0!
1"
0.
1/
1%
00
#300000
0"
0/
0%
#350000
1"
1/
1%
#375000
1!
1.
0%
11
12
13
0,
1-
0#
1$
#400000
0"
0/
1%
#450000
1"
1/
0%
#500000
0!
0"
0.
0/
1%
01
#535000
1!
1.
0%
10
02
1,
1#
03
0-
0$
#550000
1"
1/
1%
#560000
0!
0.
0%
00
#585000
1!
1.
1%
11
12
13
0,
1-
0#
1$
#600000
0"
0/
0%
#610000
0!
0.
1%
01
#635000
1!
1.
0%
10
02
1,
1#
03
0-
0$
#650000
1"
1/
1%
#660000
0!
0.
0%
00
#685000
1!
1.
1%
11
12
13
0,
1-
0#
1$
#700000
0"
0/
0%
#710000
0!
0.
1%
01
#735000
1!
1.
0%
10
02
1,
1#
03
0-
0$
#750000
1"
1/
1%
#760000
0!
0.
0%
00
#785000
1!
1.
1%
11
12
13
0,
1-
0#
1$
#800000
0"
0/
0%
#810000
0!
0.
1%
01
#835000
1!
1.
0%
10
02
1,
1#
03
0-
0$
#850000
1"
1/
1%
#860000
0!
0.
0%
00
#885000
1!
1.
1%
11
12
13
0,
1-
0#
1$
#900000
0"
0/
0%
#910000
0!
0.
1%
01
#935000
1!
1.
0%
10
02
1,
1#
03
0-
0$
#950000
1"
1/
1%
#960000
0!
0.
0%
00
#985000
1!
1.
1%
11
12
13
0,
1-
0#
1$
