Lab4/ITI1100_LAB4_PT_3/Simulation/qsim/ITI1100_LAB4_PT_3.msim.vcd
$comment
	File created using the following command:
		vcd file ITI1100_LAB4_PT_3.msim.vcd -direction
$end
$date
	Tue Mar 10 06:08:16 2026
$end
$version
	ModelSim Version 10.1d
$end
$timescale
	1ps
$end
$scope module Multiplexer_vlg_vec_tst $end
$var reg 1 ! D0 $end
$var reg 1 " D1 $end
$var reg 1 # D2 $end
$var reg 1 $ D3 $end
$var reg 1 % S0 $end
$var reg 1 & S1 $end
$var wire 1 ' Y $end
$var wire 1 ( sampler $end
$scope module i1 $end
$var wire 1 ) gnd $end
$var wire 1 * vcc $end
$var wire 1 + unknown $end
$var tri1 1 , devclrn $end
$var tri1 1 - devpor $end
$var tri1 1 . devoe $end
$var wire 1 / S0~input_o $end
$var wire 1 0 Y~output_o $end
$var wire 1 1 D2~input_o $end
$var wire 1 2 S1~input_o $end
$var wire 1 3 D3~input_o $end
$var wire 1 4 D0~input_o $end
$var wire 1 5 D1~input_o $end
$var wire 1 6 inst5~0_combout $end
$var wire 1 7 inst5~1_combout $end
$upscope $end
$upscope $end
$enddefinitions $end
#0
$dumpvars
0!
0"
0#
0$
0%
0&
0'
x(
0)
1*
x+
1,
1-
1.
0/
00
01
02
03
04
05
06
07
$end
#50000
1!
14
0(
16
17
10
1'
#100000
1"
0!
15
04
1(
06
07
00
0'
#150000
1!
14
0(
16
17
10
1'
#200000
1#
0"
0!
11
05
04
1(
06
07
00
0'
#250000
1!
14
0(
16
17
10
1'
#300000
1"
0!
15
04
1(
06
07
00
0'
#350000
1!
14
0(
16
17
10
1'
#400000
1$
0#
0"
0!
13
01
05
04
1(
06
07
00
0'
#450000
1!
14
0(
16
17
10
1'
#500000
1"
0!
15
04
1(
06
07
00
0'
#550000
1!
14
0(
16
17
10
1'
#600000
1#
0"
0!
11
05
04
1(
06
07
00
0'
#650000
1!
14
0(
16
17
10
1'
#700000
1"
0!
15
04
1(
06
07
00
0'
#750000
1!
14
0(
16
17
10
1'
#800000
1%
0$
0#
0"
0!
1/
03
01
05
04
1(
06
07
00
0'
#850000
1!
14
0(
#900000
1"
0!
15
04
1(
16
17
10
1'
#950000
1!
14
0(
#1000000
1#
0"
0!
11
05
04
1(
06
07
00
0'
#1050000
1!
14
0(
#1100000
1"
0!
15
04
1(
16
17
10
1'
#1150000
1!
14
0(
#1200000
1$
0#
0"
0!
13
01
05
04
1(
06
07
00
0'
#1250000
1!
14
0(
#1300000
1"
0!
15
04
1(
16
17
10
1'
#1350000
1!
14
0(
#1400000
1#
0"
0!
11
05
04
1(
06
07
00
0'
#1450000
1!
14
0(
#1500000
1"
0!
15
04
1(
16
17
10
1'
#1550000
1!
14
0(
#1600000
1&
0%
0$
0#
0"
0!
12
0/
03
01
05
04
1(
06
07
00
0'
#1650000
1!
14
0(
#1700000
1"
0!
15
04
1(
#1750000
1!
14
0(
#1800000
1#
0"
0!
11
05
04
1(
17
10
1'
#1850000
1!
14
0(
#1900000
1"
0!
15
04
1(
#1950000
1!
14
0(
#2000000
1$
0#
0"
0!
13
01
05
04
1(
07
00
0'
#2050000
1!
14
0(
#2100000
1"
0!
15
04
1(
#2150000
1!
14
0(
#2200000
1#
0"
0!
11
05
04
1(
17
10
1'
#2250000
1!
14
0(
#2300000
1"
0!
15
04
1(
#2350000
1!
14
0(
#2400000
1%
0$
0#
0"
0!
1/
03
01
05
04
1(
16
07
00
0'
#2450000
1!
14
0(
#2500000
1"
0!
15
04
1(
#2550000
1!
14
0(
#2600000
1#
0"
0!
11
05
04
1(
#2650000
1!
14
0(
#2700000
1"
0!
15
04
1(
#2750000
1!
14
0(
#2800000
1$
0#
0"
0!
13
01
05
04
1(
17
10
1'
#2850000
1!
14
0(
#2900000
1"
0!
15
04
1(
#2950000
1!
14
0(
#3000000
1#
0"
0!
11
05
04
1(
#3050000
1!
14
0(
#3100000
1"
0!
15
04
1(
#3150000
1!
14
0(
