lab3/Pre_Lab_3/Signed_8_Bit_Adder/simulation/qsim/Signed_Adder.msim.vcd
$comment
	File created using the following command:
		vcd file Signed_Adder.msim.vcd -direction
$end
$date
	Tue Feb 24 07:54:43 2026
$end
$version
	ModelSim Version 10.1d
$end
$timescale
	1ps
$end
$scope module Signed_Adder_vlg_vec_tst $end
$var reg 1 ! A0 $end
$var reg 1 " A1 $end
$var reg 1 # A2 $end
$var reg 1 $ A3 $end
$var reg 1 % A4 $end
$var reg 1 & A5 $end
$var reg 1 ' A6 $end
$var reg 1 ( A7 $end
$var reg 1 ) B0 $end
$var reg 1 * B1 $end
$var reg 1 + B2 $end
$var reg 1 , B3 $end
$var reg 1 - B4 $end
$var reg 1 . B5 $end
$var reg 1 / B6 $end
$var reg 1 0 B7 $end
$var reg 1 1 M $end
$var wire 1 2 C_Out $end
$var wire 1 3 SUM0 $end
$var wire 1 4 SUM1 $end
$var wire 1 5 SUM2 $end
$var wire 1 6 SUM3 $end
$var wire 1 7 SUM4 $end
$var wire 1 8 SUM5 $end
$var wire 1 9 SUM6 $end
$var wire 1 : SUM7 $end
$var wire 1 ; V $end
$var wire 1 < sampler $end
$scope module i1 $end
$var wire 1 = gnd $end
$var wire 1 > vcc $end
$var wire 1 ? unknown $end
$var tri1 1 @ devclrn $end
$var tri1 1 A devpor $end
$var tri1 1 B devoe $end
$var wire 1 C SUM0~output_o $end
$var wire 1 D SUM1~output_o $end
$var wire 1 E SUM2~output_o $end
$var wire 1 F SUM3~output_o $end
$var wire 1 G SUM4~output_o $end
$var wire 1 H SUM5~output_o $end
$var wire 1 I SUM6~output_o $end
$var wire 1 J SUM7~output_o $end
$var wire 1 K V~output_o $end
$var wire 1 L C_Out~output_o $end
$var wire 1 M B0~input_o $end
$var wire 1 N A0~input_o $end
$var wire 1 O inst|inst3~0_combout $end
$var wire 1 P M~input_o $end
$var wire 1 Q A1~input_o $end
$var wire 1 R inst|inst4~0_combout $end
$var wire 1 S B1~input_o $end
$var wire 1 T inst3|inst3~combout $end
$var wire 1 U B2~input_o $end
$var wire 1 V inst3|inst4~0_combout $end
$var wire 1 W A2~input_o $end
$var wire 1 X inst5|inst3~0_combout $end
$var wire 1 Y A3~input_o $end
$var wire 1 Z inst5|inst4~0_combout $end
$var wire 1 [ B3~input_o $end
$var wire 1 \ inst7|inst3~0_combout $end
$var wire 1 ] inst7|inst4~0_combout $end
$var wire 1 ^ B4~input_o $end
$var wire 1 _ A4~input_o $end
$var wire 1 ` inst9|inst3~0_combout $end
$var wire 1 a B5~input_o $end
$var wire 1 b A5~input_o $end
$var wire 1 c inst9|inst4~0_combout $end
$var wire 1 d inst11|inst3~0_combout $end
$var wire 1 e inst11|inst4~0_combout $end
$var wire 1 f A6~input_o $end
$var wire 1 g B6~input_o $end
$var wire 1 h inst13|inst3~0_combout $end
$var wire 1 i B7~input_o $end
$var wire 1 j inst13|inst4~0_combout $end
$var wire 1 k A7~input_o $end
$var wire 1 l inst15|inst3~0_combout $end
$var wire 1 m inst17~combout $end
$var wire 1 n inst15|inst4~0_combout $end
$upscope $end
$upscope $end
$enddefinitions $end
#0
$dumpvars
1!
1"
1#
1$
1%
1&
1'
0(
1)
0*
0+
0,
0-
0.
0/
00
01
x2
x3
x4
x5
x6
x7
x8
x9
x:
x;
x<
0=
1>
x?
1@
1A
1B
xC
xD
xE
xF
xG
xH
xI
xJ
xK
xL
1M
1N
xO
0P
1Q
xR
0S
xT
0U
xV
1W
xX
1Y
xZ
0[
x\
x]
0^
1_
x`
0a
1b
xc
xd
xe
1f
0g
xh
0i
xj
0k
xl
xm
xn
$end
#4285
0O
#4300
1R
#4339
0n
#4967
0T
#4974
1V
#5468
0X
#5474
1Z
#6124
1]
#6163
0\
#6949
1c
#6989
0`
#7444
0d
#7447
1e
#8099
1j
#8135
0h
#8812
1l
#8954
1m
#12676
0E
05
#12998
0G
07
#13167
0H
08
#13864
0D
04
#14095
0C
03
#14555
0F
06
#14608
0L
02
#18176
0I
09
#19152
1J
1:
#20205
1K
1;
#150000
1(
0<
#150690
1k
#154116
0m
#154291
0l
#154299
1n
#164408
0J
0:
#164725
1L
12
#165289
0K
0;
#300000
0'
0&
0%
0$
0#
0"
0!
11
0(
1<
#300650
1P
#300796
0k
0_
0b
#300806
0N
0Q
0W
0Y
0f
#303685
1h
#303686
1d
#303691
1l
#303695
1\
#304021
1`
#304024
1X
#304235
0X
#304302
0`
#304331
0R
#304349
1O
#304618
0\
#304626
0l
#304640
0h
#304667
0d
#305008
0V
#305012
1T
#305538
0Z
#305544
1X
#306250
0]
#306265
1\
#307111
0c
#307126
1`
#307639
0e
#307648
1d
#308364
0j
#308367
1h
#309099
0n
#309117
1l
#312724
1E
15
#313037
1G
17
#313301
1H
18
#314141
1D
14
#314294
1C
13
#314835
1F
16
#318629
1I
19
#319368
0L
02
#319457
1J
1:
#450000
1/
1.
1-
1,
1+
1*
0<
#450640
1g
#450650
1^
#450660
1[
#450670
1U
1a
#450680
1S
#453883
0T
#453990
0h
#454363
0`
#454605
0d
#454729
0\
#454887
0X
#460328
0H
08
#460372
0G
07
#462095
0E
05
#462780
0D
04
#463121
0F
06
#464031
0I
09
#600000
0)
1'
01
1(
0.
0-
0,
0+
0*
1<
#600690
1k
#600700
1f
#600756
0^
0P
#600766
0[
#600776
0U
0a
0M
#600786
0S
#604090
1j
#604095
1d
#604106
1\
#604432
1`
#604437
1X
#604731
0`
#604762
1n
#604805
0l
#604961
0d
#605077
0\
#605236
0X
#605311
0O
#614922
0J
0:
#615121
0C
03
#615188
1L
12
#750000
10
0/
0<
#750650
1i
#750746
0g
#754360
0j
#754367
1h
#755241
1m
#764629
1I
19
#766492
1K
1;
